Practical Four – Peer Assignment 1
…
Question One

Displaying the flights dataset.

# Note -- already a tibble object so no need to convert!
data <- flights
class(data)

[1] "tbl_df"     "tbl"        "data.frame"

Showing the flights data:

data

# A tibble: 336,776 × 19
    year month   day dep_time sched_dep_time dep_delay arr_time sched_arr_time
   <int> <int> <int>    <int>          <int>     <dbl>    <int>          <int>
 1  2013     1     1      517            515         2      830            819
 2  2013     1     1      533            529         4      850            830
 3  2013     1     1      542            540         2      923            850
 4  2013     1     1      544            545        -1     1004           1022
 5  2013     1     1      554            600        -6      812            837
 6  2013     1     1      554            558        -4      740            728
 7  2013     1     1      555            600        -5      913            854
 8  2013     1     1      557            600        -3      709            723
 9  2013     1     1      557            600        -3      838            846
10  2013     1     1      558            600        -2      753            745
# ℹ 336,766 more rows
# ℹ 11 more variables: arr_delay <dbl>, carrier <chr>, flight <int>,
#   tailnum <chr>, origin <chr>, dest <chr>, air_time <dbl>, distance <dbl>,
#   hour <dbl>, minute <dbl>, time_hour <dttm>
…
Identifying routes that more than one airline flies

# join the two datasets 
full_data <-full_join(data, air_data, by = "carrier" )

# getting origin & destination wherein more than one carrier flies
multi_carrier_routes <- data |> 
  group_by(origin, dest) |> 
  filter(n_distinct(carrier) > 1)
multi_carrier_routes

# A tibble: 276,735 × 19
# Groups:   origin, dest [128]
    year month   day dep_time sched_dep_time dep_delay arr_time sched_arr_time
   <int> <int> <int>    <int>          <int>     <dbl>    <int>          <int>
 1  2013     1     1      542            540         2      923            850
 2  2013     1     1      554            600        -6      812            837
 3  2013     1     1      554            558        -4      740            728
 4  2013     1     1      555            600        -5      913            854
 5  2013     1     1      557            600        -3      709            723
 6  2013     1     1      557            600        -3      838            846
 7  2013     1     1      558            600        -2      753            745
 8  2013     1     1      558            600        -2      853            856
 9  2013     1     1      558            600        -2      924            917
10  2013     1     1      558            600        -2      923            937
# ℹ 276,725 more rows
# ℹ 11 more variables: arr_delay <dbl>, carrier <chr>, flight <int>,
#   tailnum <chr>, origin <chr>, dest <chr>, air_time <dbl>, distance <dbl>,
#   hour <dbl>, minute <dbl>, time_hour <dttm>
Calculating the avg arrival delay for each airline

Using multi_carrier_routes

summary_routes <- multi_carrier_routes |> 
  group_by(origin, dest, carrier) |> 
  summarise(
    avg_delay = mean(arr_delay, na.rm = TRUE),
    .groups = "drop"
  ) |> 
  arrange(avg_delay)

summary_routes

# A tibble: 343 × 4
   origin dest  carrier avg_delay
   <chr>  <chr> <chr>       <dbl>
 1 LGA    MSY   9E          -29  
 2 JFK    BNA   DL          -27  
 3 LGA    IND   DL          -26.5
 4 JFK    STT   DL          -25.9
 5 EWR    IAD   UA          -24  
 6 LGA    CMH   9E          -23  
 7 LGA    STL   EV          -23  
 8 EWR    OMA   UA          -20.5
 9 EWR    TPA   EV          -20  
10 LGA    DFW   EV          -19.9
# ℹ 333 more rows
…
I added a delay_difference column so I don’t have to repeat this entire thing in step 7

best_worst_carrier <- summary_routes |> 
  group_by(origin, dest) |> 
  summarise(
    best_carrier = carrier[which.min(avg_delay)],
    best_arr_delay = min(avg_delay),
    worst_carrier = carrier[which.max(avg_delay)],
    worst_arr_delay = max(avg_delay),
    delay_diff = worst_arr_delay - best_arr_delay, # difference
    .groups = "drop"
  )
best_worst_carrier

# A tibble: 128 × 7
   origin dest  best_carrier best_arr_delay worst_carrier worst_arr_delay
   <chr>  <chr> <chr>                 <dbl> <chr>                   <dbl>
 1 EWR    ATL   9E                   -6.25  EV                      19.5 
 2 EWR    AUS   WN                  -11.2   UA                       4.28
 3 EWR    BDL   EV                    6.78  UA                      22.6 
 4 EWR    BNA   WN                   -2.13  EV                      17.7 
 5 EWR    BOS   EV                   -4.01  B6                       6.87
 6 EWR    BWI   WN                    5.95  EV                      20.1 
 7 EWR    CHS   UA                  -14     EV                      16.2 
 8 EWR    CLE   EV                   -3.71  UA                       5.97
 9 EWR    CLT   US                    0.920 EV                      20.5 
10 EWR    CVG   9E                    1.40  EV                      21.2 
# ℹ 118 more rows
# ℹ 1 more variable: delay_diff <dbl>
…
Why the difference?

The worst performing airline on route JKF to ATL is EV, while the best performing is 9E.

The difference in the arrival delay could be because of the times in which these flights are scheduled for each airline.

full_data |> 
  filter(origin == "JFK", dest == "ATL")

# A tibble: 1,930 × 20
    year month   day dep_time sched_dep_time dep_delay arr_time sched_arr_time
   <int> <int> <int>    <int>          <int>     <dbl>    <int>          <int>
 1  2013     1     1      606            610        -4      837            845
 2  2013     1     1      807            810        -3     1043           1043
 3  2013     1     1     1325           1330        -5     1606           1605
 4  2013     1     1     1621           1548        33     1904           1830
 5  2013     1     1     1856           1855         1     2142           2142
 6  2013     1     2      606            610        -4      846            845
 7  2013     1     2      808            810        -2     1049           1045
 8  2013     1     2     1324           1330        -6     1552           1605
 9  2013     1     2     1551           1548         3     1838           1830
10  2013     1     2     1854           1855        -1     2126           2142
# ℹ 1,920 more rows
# ℹ 12 more variables: arr_delay <dbl>, carrier <chr>, flight <int>,
#   tailnum <chr>, origin <chr>, dest <chr>, air_time <dbl>, distance <dbl>,
#   hour <dbl>, minute <dbl>, time_hour <dttm>, name <chr>
…
